New Models - Regression Expansion
…
# A tibble: 2 × 4
  .metric .estimator .estimate .config             
  <chr>   <chr>          <dbl> <chr>               
1 rmse    standard    3268.    Preprocessor1_Model1
2 rsq     standard       0.896 Preprocessor1_Model1

final_fit |>
extract_fit_parsnip() |>
tidy()

# A tibble: 29 × 5
   term                                estimate std.error statistic  p.value
   <chr>                                  <dbl>     <dbl>     <dbl>    <dbl>
 1 (Intercept)                          22447.      1533.    14.6   6.85e-35
 2 seasons_Spring                       -1923.       245.    -7.84  1.56e-13
 3 seasons_Summer                        8083.       921.     8.78  3.56e-16
 4 seasons_Winter                       -4193.       997.    -4.21  3.70e- 5
 5 holiday_No.Holiday                     884.       191.     4.64  5.86e- 6
 6 day_type_Weekend                     -1105.       169.    -6.54  3.79e-10
 7 seasons_Spring_x_holiday_No.Holiday    -26.9      257.    -0.105 9.17e- 1
 8 seasons_Summer_x_holiday_No.Holiday   -125.       239.    -0.522 6.02e- 1
 9 seasons_Winter_x_holiday_No.Holiday   -323.       188.    -1.72  8.77e- 2
10 seasons_Spring_x_temp                 1850.       480.     3.86  1.48e- 4
# ℹ 19 more rows
…
# A tibble: 2 × 4
  .metric .estimator .estimate .config             
  <chr>   <chr>          <dbl> <chr>               
1 rmse    standard       3268. Preprocessor1_Model1
2 mae     standard       2075. Preprocessor1_Model1

Final Coefficients MLR

MLR_wkf3 |>
  last_fit(bike_split, metrics = metric_set(rmse, mae)) |>
  extract_fit_parsnip() |> tidy()

# A tibble: 29 × 5
   term                                estimate std.error statistic  p.value
   <chr>                                  <dbl>     <dbl>     <dbl>    <dbl>
 1 (Intercept)                          22447.      1533.    14.6   6.85e-35
 2 seasons_Spring                       -1923.       245.    -7.84  1.56e-13
 3 seasons_Summer                        8083.       921.     8.78  3.56e-16
 4 seasons_Winter                       -4193.       997.    -4.21  3.70e- 5
 5 holiday_No.Holiday                     884.       191.     4.64  5.86e- 6
 6 day_type_Weekend                     -1105.       169.    -6.54  3.79e-10
 7 seasons_Spring_x_holiday_No.Holiday    -26.9      257.    -0.105 9.17e- 1
 8 seasons_Summer_x_holiday_No.Holiday   -125.       239.    -0.522 6.02e- 1
 9 seasons_Winter_x_holiday_No.Holiday   -323.       188.    -1.72  8.77e- 2
10 seasons_Spring_x_temp                 1850.       480.     3.86  1.48e- 4
# ℹ 19 more rows
…
Computational engine: glmnet 

We can now tune the grid and find the best model. Let’s graph this as well so that we can see what the penalty term looks like.

LASSO_grid <- LASSO_wkf |>
  tune_grid(resamples = bike_10_fold,
            grid = grid_regular(penalty(), levels = 200)) 

LASSO_grid[1, ".metrics"][[1]]

[[1]]
# A tibble: 400 × 5
    penalty .metric .estimator .estimate .config               
      <dbl> <chr>   <chr>          <dbl> <chr>                 
 1 1   e-10 rmse    standard       4784. Preprocessor1_Model001
 2 1.12e-10 rmse    standard       4784. Preprocessor1_Model002
 3 1.26e-10 rmse    standard       4784. Preprocessor1_Model003
 4 1.41e-10 rmse    standard       4784. Preprocessor1_Model004
 5 1.59e-10 rmse    standard       4784. Preprocessor1_Model005
 6 1.78e-10 rmse    standard       4784. Preprocessor1_Model006
 7 2.00e-10 rmse    standard       4784. Preprocessor1_Model007
 8 2.25e-10 rmse    standard       4784. Preprocessor1_Model008
 9 2.52e-10 rmse    standard       4784. Preprocessor1_Model009
10 2.83e-10 rmse    standard       4784. Preprocessor1_Model010
# ℹ 390 more rows
…
So this was the code provided. For some reason, the RMSE doesn’t change at all with this penalty. It may not be appropriate! So after a lot of digging and figuring things out (including deleting all of my code and copying down hw8 word for word, I have realized the penalty() is not large enough for this dataset in particular). Let’s try something new:

LASSO_grid <- LASSO_wkf |>
    tune_grid(
        resamples = bike_10_fold,
        grid = grid_regular(penalty(range = c(-5, 2), trans = log10_trans()), levels = 200)
    )

LASSO_grid[1, ".metrics"][[1]]

[[1]]
# A tibble: 400 × 5
     penalty .metric .estimator .estimate .config               
       <dbl> <chr>   <chr>          <dbl> <chr>                 
 1 0.00001   rmse    standard       4784. Preprocessor1_Model001
 2 0.0000108 rmse    standard       4784. Preprocessor1_Model002
 3 0.0000118 rmse    standard       4784. Preprocessor1_Model003
 4 0.0000128 rmse    standard       4784. Preprocessor1_Model004
 5 0.0000138 rmse    standard       4784. Preprocessor1_Model005
 6 0.0000150 rmse    standard       4784. Preprocessor1_Model006
 7 0.0000163 rmse    standard       4784. Preprocessor1_Model007
 8 0.0000176 rmse    standard       4784. Preprocessor1_Model008
 9 0.0000191 rmse    standard       4784. Preprocessor1_Model009
10 0.0000207 rmse    standard       4784. Preprocessor1_Model010
# ℹ 390 more rows
…
tree_fits |>
  collect_metrics()

# A tibble: 100 × 8
   cost_complexity tree_depth .metric .estimator     mean     n  std_err .config
             <dbl>      <int> <chr>   <chr>         <dbl> <int>    <dbl> <chr>  
 1    0.0000000001          1 rmse    standard   6432.       10 350.     Prepro…
 2    0.0000000001          1 rsq     standard      0.595    10   0.0484 Prepro…
 3    0.000000001           1 rmse    standard   6432.       10 350.     Prepro…
 4    0.000000001           1 rsq     standard      0.595    10   0.0484 Prepro…
 5    0.00000001            1 rmse    standard   6432.       10 350.     Prepro…
 6    0.00000001            1 rsq     standard      0.595    10   0.0484 Prepro…
 7    0.0000001             1 rmse    standard   6432.       10 350.     Prepro…
 8    0.0000001             1 rsq     standard      0.595    10   0.0484 Prepro…
 9    0.000001              1 rmse    standard   6432.       10 350.     Prepro…
10    0.000001              1 rsq     standard      0.595    10   0.0484 Prepro…
# ℹ 90 more rows
…
This gives us a nice look at what the trees are doing. It appears a large amount of variables would be suitable for this model. Let’s get a deeper look:

tree_fits |>
  collect_metrics() |>
  filter(.metric == "rmse") |>
  arrange(mean)

# A tibble: 50 × 8
   cost_complexity tree_depth .metric .estimator  mean     n std_err .config    
             <dbl>      <int> <chr>   <chr>      <dbl> <int>   <dbl> <chr>      
 1    0.001                11 rmse    standard   3817.    10    285. Preprocess…
 2    0.001                15 rmse    standard   3817.    10    285. Preprocess…
 3    0.0000000001         11 rmse    standard   3837.    10    302. Preprocess…
 4    0.000000001          11 rmse    standard   3837.    10    302. Preprocess…
 5    0.00000001           11 rmse    standard   3837.    10    302. Preprocess…
 6    0.0000001            11 rmse    standard   3837.    10    302. Preprocess…
 7    0.000001             11 rmse    standard   3837.    10    302. Preprocess…
 8    0.00001              11 rmse    standard   3837.    10    302. Preprocess…
 9    0.0001               11 rmse    standard   3837.    10    302. Preprocess…
10    0.0000000001         15 rmse    standard   3837.    10    302. Preprocess…
# ℹ 40 more rows
…
